{
	"img_priority": [
		{
			"name": 1,
			"position": 1,
			"is_default": 1,
			"is_thumbnail": 1,
			"deleted": false
		}
	],
	"currency_code": "INR",
	"category_id": "$category_id",
	"vertical_id": "2",
	"dimensionsUnit": "",
	"length": "",
	"breadth": "",
	"height": "",
	"Product Dimension (In CM)": "",
	"brand_id": "439730",
	"brand": "default",
	"policyText": "Seller will accept returns within a 15 days from date of delivery of the item and replace with in 4 days",
	"return_policy_id": 33,
	"name": "$product_name",
	"sku": "prettysas223ds",
	"mrp": "$mrp_price",
	"price": "$price",
	"Color": "Beige",
	"Fit": "Regular Fit",
	"Material": "Cotton",
	"Size": "40",
	"weight": "25",
	"max_dispatch_time": 2,
	"image_folder": "req_1535955726066",
	"description": "[{\"title\":\"General\",\"description\":\"\",\"attributes\":{}},{\"title\":\"new product title\",\"description\":\"\",\"attributes\":{}}]",
	"dimensions": "",
	"lot_type": 3,
	"min_order_qty": 3,
	"num_items": 10,
	"B2B": 1,
	"shipping_charge": 13.44,
	"Min Order Quantity": 14
}